[
  {
    "_id": "talecom",
    "alias": "talecom",
    "title": "TALECOM",
    "tags": ["UI/UX", "Frontend", "Дизайн логотипа"],
    "categories": ["Корпоративные сайты"],
    "works": "Сайт бухгалтерской компании TALECOM",
    "description": "Волгоградская компания Talecom объединяет направления бухгалтерского учета и юридического сопровождения для частных лиц, малого и среднего бизнеса, владельцев инвестиционной собственности.",
    "img": "/cases/talecom/main.png",
    "background": "linear-gradient(123.73deg, rgb(148, 191, 136) 0%, rgb(180, 213, 170) 100%), rgb(242, 247, 248)",
    "link": "https://www.talecom.ru",
    "published": false
  },
  {
    "_id": "sudoremont",
    "alias": "sudoremont",
    "title": "Волгоградский судоремонтный завод",
    "titleMods": ["none"],
    "tags": ["UI/UX", "Frontend", "Backend"],
    "categories": ["Корпоративные сайты"],
    "works":  "Корпоративный сайт Волгоградского судоремонтного завода",
    "description": "Волгоградский судоремонтный завод - старейшее в Волгограде судоремонтное предприятие, работающее с 1890 года на пересечении главных водных путей Европейской части России, но по-прежнему идущее в ногу со временем.",
    "img": "/cases/sudoremont/main.png",
    "imgMods": [],
    "background": "#98A6B0 url(/cases/sudoremont/background.jpg) no-repeat center / cover",
    "pageBg": "#f6f6f6",
    "link": "http://sudoremont34.ru/",
    "published": true
  },
  {
    "_id": "orgsynthesis",
    "alias": "orgsynthesis",
    "title": "АО \"Волжский Оргсинтез\"",
    "titleMods": ["none"],
    "tags": ["UI/UX", "Frontend", "Backend"],
    "categories": ["Корпоративные сайты"],
    "works":  "Корпоративный сайт химической компании Волжский Оргсинтез",
    "description": "«Волжский Оргсинтез» - одно из крупнейших химических предприятий в Европе, ведущий производитель продукции органического синтеза в России. Это современная химическая компания с более чем полувековой историей.",
    "img": "/cases/orgsynthesis/main.png",
    "imgMods": ["full"],
    "background": "#F0F1F4",
    "light": true,
    "pageBg": "#F0F1F4",
    "link": "https://www.zos-v.ru/",
    "published": true
  },
  {
    "_id": "neftezavodmontazh",
    "alias": "neftezavodmontazh",
    "title": "НЕФТЕЗАВОДМОНТАЖ",
    "titleMods": [],
    "tags": ["Brand Identity"],
    "categories": ["Брендинг"],
    "works":  "Фирменный стиль компании Нефтезаводмонтаж",
    "description": "Компания была организована в июне 1944 года в городе Грозном для восстановления разрушенных войной объектов нефтеперерабатывающей, нефтехимической, нефтяной и газовой отрасли. Сейчас, \"НЗМ\" является крупнейшей монтажной организацией в России, как по численности персонала, так и по объёмам выполненных работ. В портфолио компании проекты с такими гигантами как: Газпром, Лукой, Роснефть, Татнефть, Total и др.",
    "img": "/cases/neftezavodmontazh/main.jpg",
    "imgMods": ["full", "cover"],
    "background": "#000",
    "pageBg": "",
    "link": "",
    "published": true
  },
  {
    "_id": "heritage",
    "alias": "heritage",
    "title": "Наследие",
    "titleMods": ["none"],
    "tags": ["UI/UX", "Frontend", "Backend", "Фирменный стиль"],
    "categories": ["Фирменный стиль", "Упаковка", "Сайт"],
    "works":  "Сайт и фирменный стиль Военно-исторического музея «Наследие»",
    "description": "Основная цель создания Военно-исторического музея «Наследие» — изучение и публичное представление музейных предметов в целях осуществления просветительской деятельности.",
    "img": "/cases/heritage/main.jpg",
    "imgMods": ["full", "cover"],
    "background": "#000",
    "pageBg": "#F6F6F6",
    "link": "http://museum-nasledie.com/",
    "published": true
  },
  {
    "_id": "techinhouse",
    "alias": "techinhouse",
    "title": "TECHINHOUSE",
    "titleMods": ["none"],
    "tags": ["UI/UX", "Frontend", "Backend", "Фирменный стиль"],
    "categories": ["Корпоративные сайты"],
    "works":  "Корпоративный сайт компании Techinhouse",
    "description": "Компания Techinhouse занимается разработкой и интеграцией систем автоматизации для жилых и коммерческих объектов. ",
    "img": "/cases/techinhouse/main.png",
    "imgMods": [],
    "background": "#001AF4",
    "published": true
  },
  {
    "_id": "xlnt",
    "alias": "xlnt",
    "title": "xlnt",
    "titleMods": [],
    "tags": ["Brand Identity"],
    "categories": ["Брендинг"],
    "works":  "Брендинг фитнес-клуба XLNT",
    "description": "Персональный бренд, целиком построенный на личности основателя. Философия, нейминг и визуальный стиль для женской студии фитнеса без компромиссов. Думаешь что 35 минут для тренировки это мало? Мало не покажется! ",
    "img": "/cases/xlnt/main.jpg",
    "imgMods": ["full", "cover"],
    "background": "#141414",
    "pageBg": "#141414",
    "link": "http://museum-nasledie.com/",
    "published": true
  }
]
